^C:\USERS\SOFIE\DOCUMENTS\SCHOOL\422HW2\422HW2\422HW2\DEBUG\LINEARR3.OBJ|C:\USERS\SOFIE\DOCUMENTS\SCHOOL\422HW2\422HW2\422HW2\DEBUG\LINEARR4.OBJ|C:\USERS\SOFIE\DOCUMENTS\SCHOOL\422HW2\422HW2\422HW2\DEBUG\MAIN.OBJ|C:\USERS\SOFIE\DOCUMENTS\SCHOOL\422HW2\422HW2\422HW2\DEBUG\SHADERMGRSAM.OBJ
C:\PROGRAM FILES (X86)\WINDOWS KITS\10\LIB\10.0.16299.0\UM\X86\OPENGL32.LIB
C:\USERS\SOFIE\DOCUMENTS\SCHOOL\422HW2\EXTERNAL RESOURCES\GLEW\LIB\RELEASE\WIN32\GLEW32S.LIB
C:\USERS\SOFIE\DOCUMENTS\SCHOOL\422HW2\EXTERNAL RESOURCES\GLFW\LIB-VC2015\GLFW3.LIB
C:\PROGRAM FILES (X86)\WINDOWS KITS\10\LIB\10.0.16299.0\UM\X86\KERNEL32.LIB
C:\PROGRAM FILES (X86)\WINDOWS KITS\10\LIB\10.0.16299.0\UM\X86\USER32.LIB
C:\PROGRAM FILES (X86)\WINDOWS KITS\10\LIB\10.0.16299.0\UM\X86\GDI32.LIB
C:\PROGRAM FILES (X86)\WINDOWS KITS\10\LIB\10.0.16299.0\UM\X86\WINSPOOL.LIB
C:\PROGRAM FILES (X86)\WINDOWS KITS\10\LIB\10.0.16299.0\UM\X86\COMDLG32.LIB
C:\PROGRAM FILES (X86)\WINDOWS KITS\10\LIB\10.0.16299.0\UM\X86\ADVAPI32.LIB
C:\PROGRAM FILES (X86)\WINDOWS KITS\10\LIB\10.0.16299.0\UM\X86\SHELL32.LIB
C:\PROGRAM FILES (X86)\WINDOWS KITS\10\LIB\10.0.16299.0\UM\X86\OLE32.LIB
C:\PROGRAM FILES (X86)\WINDOWS KITS\10\LIB\10.0.16299.0\UM\X86\OLEAUT32.LIB
C:\PROGRAM FILES (X86)\WINDOWS KITS\10\LIB\10.0.16299.0\UM\X86\UUID.LIB
C:\PROGRAM FILES (X86)\WINDOWS KITS\10\LIB\10.0.16299.0\UM\X86\ODBC32.LIB
C:\PROGRAM FILES (X86)\WINDOWS KITS\10\LIB\10.0.16299.0\UM\X86\ODBCCP32.LIB
C:\USERS\SOFIE\DOCUMENTS\SCHOOL\422HW2\422HW2\422HW2\DEBUG\LINEARR3.OBJ
C:\USERS\SOFIE\DOCUMENTS\SCHOOL\422HW2\422HW2\422HW2\DEBUG\LINEARR4.OBJ
C:\USERS\SOFIE\DOCUMENTS\SCHOOL\422HW2\422HW2\422HW2\DEBUG\MAIN.OBJ
C:\USERS\SOFIE\DOCUMENTS\SCHOOL\422HW2\422HW2\422HW2\DEBUG\SHADERMGRSAM.OBJ
C:\WINDOWS\SYSTEM32\TZRES.DLL
C:\WINDOWS\GLOBALIZATION\SORTING\SORTDEFAULT.NLS
C:\PROGRAM FILES (X86)\MICROSOFT VISUAL STUDIO\2017\COMMUNITY\VC\TOOLS\MSVC\14.16.27023\LIB\X86\MSVCPRTD.LIB
C:\PROGRAM FILES (X86)\MICROSOFT VISUAL STUDIO\2017\COMMUNITY\VC\TOOLS\MSVC\14.16.27023\LIB\X86\MSVCRTD.LIB
C:\PROGRAM FILES (X86)\MICROSOFT VISUAL STUDIO\2017\COMMUNITY\VC\TOOLS\MSVC\14.16.27023\LIB\X86\OLDNAMES.LIB
C:\PROGRAM FILES (X86)\WINDOWS KITS\10\LIB\10.0.16299.0\UM\X86\GLU32.LIB
C:\USERS\SOFIE\DOCUMENTS\SCHOOL\422HW2\EXTERNAL RESOURCES\GLEW\LIB\RELEASE\WIN32\GLEW32.LIB
C:\PROGRAM FILES (X86)\MICROSOFT VISUAL STUDIO\2017\COMMUNITY\VC\TOOLS\MSVC\14.16.27023\LIB\X86\LIBCMT.LIB
C:\PROGRAM FILES (X86)\MICROSOFT VISUAL STUDIO\2017\COMMUNITY\VC\TOOLS\MSVC\14.16.27023\LIB\X86\MSVCRT.LIB
C:\PROGRAM FILES (X86)\MICROSOFT VISUAL STUDIO\2017\COMMUNITY\VC\TOOLS\MSVC\14.16.27023\LIB\X86\VCRUNTIMED.LIB
C:\PROGRAM FILES (X86)\WINDOWS KITS\10\LIB\10.0.16299.0\UCRT\X86\UCRTD.LIB
^C:\USERS\SOFIE\DOCUMENTS\SCHOOL\422HW3\422HW3\422HW2\DEBUG\LINEARR3.OBJ|C:\USERS\SOFIE\DOCUMENTS\SCHOOL\422HW3\422HW3\422HW2\DEBUG\LINEARR4.OBJ|C:\USERS\SOFIE\DOCUMENTS\SCHOOL\422HW3\422HW3\422HW2\DEBUG\MAIN.OBJ|C:\USERS\SOFIE\DOCUMENTS\SCHOOL\422HW3\422HW3\422HW2\DEBUG\SHADERMGRSAM.OBJ
C:\PROGRAM FILES (X86)\WINDOWS KITS\10\LIB\10.0.16299.0\UM\X86\OPENGL32.LIB
C:\USERS\SOFIE\DOCUMENTS\SCHOOL\422HW3\EXTERNAL RESOURCES\GLEW\LIB\RELEASE\WIN32\GLEW32S.LIB
C:\USERS\SOFIE\DOCUMENTS\SCHOOL\422HW3\EXTERNAL RESOURCES\GLFW\LIB-VC2015\GLFW3.LIB
C:\PROGRAM FILES (X86)\WINDOWS KITS\10\LIB\10.0.16299.0\UM\X86\KERNEL32.LIB
C:\PROGRAM FILES (X86)\WINDOWS KITS\10\LIB\10.0.16299.0\UM\X86\USER32.LIB
C:\PROGRAM FILES (X86)\WINDOWS KITS\10\LIB\10.0.16299.0\UM\X86\GDI32.LIB
C:\PROGRAM FILES (X86)\WINDOWS KITS\10\LIB\10.0.16299.0\UM\X86\WINSPOOL.LIB
C:\PROGRAM FILES (X86)\WINDOWS KITS\10\LIB\10.0.16299.0\UM\X86\COMDLG32.LIB
C:\PROGRAM FILES (X86)\WINDOWS KITS\10\LIB\10.0.16299.0\UM\X86\ADVAPI32.LIB
C:\PROGRAM FILES (X86)\WINDOWS KITS\10\LIB\10.0.16299.0\UM\X86\SHELL32.LIB
C:\PROGRAM FILES (X86)\WINDOWS KITS\10\LIB\10.0.16299.0\UM\X86\OLE32.LIB
C:\PROGRAM FILES (X86)\WINDOWS KITS\10\LIB\10.0.16299.0\UM\X86\OLEAUT32.LIB
C:\PROGRAM FILES (X86)\WINDOWS KITS\10\LIB\10.0.16299.0\UM\X86\UUID.LIB
C:\PROGRAM FILES (X86)\WINDOWS KITS\10\LIB\10.0.16299.0\UM\X86\ODBC32.LIB
C:\PROGRAM FILES (X86)\WINDOWS KITS\10\LIB\10.0.16299.0\UM\X86\ODBCCP32.LIB
C:\USERS\SOFIE\DOCUMENTS\SCHOOL\422HW3\422HW3\422HW2\DEBUG\LINEARR3.OBJ
C:\USERS\SOFIE\DOCUMENTS\SCHOOL\422HW3\422HW3\422HW2\DEBUG\LINEARR4.OBJ
C:\USERS\SOFIE\DOCUMENTS\SCHOOL\422HW3\422HW3\422HW2\DEBUG\MAIN.OBJ
C:\USERS\SOFIE\DOCUMENTS\SCHOOL\422HW3\422HW3\422HW2\DEBUG\SHADERMGRSAM.OBJ
C:\WINDOWS\SYSTEM32\TZRES.DLL
C:\WINDOWS\GLOBALIZATION\SORTING\SORTDEFAULT.NLS
C:\PROGRAM FILES (X86)\MICROSOFT VISUAL STUDIO\2017\COMMUNITY\VC\TOOLS\MSVC\14.16.27023\LIB\X86\MSVCPRTD.LIB
C:\PROGRAM FILES (X86)\MICROSOFT VISUAL STUDIO\2017\COMMUNITY\VC\TOOLS\MSVC\14.16.27023\LIB\X86\MSVCRTD.LIB
C:\PROGRAM FILES (X86)\MICROSOFT VISUAL STUDIO\2017\COMMUNITY\VC\TOOLS\MSVC\14.16.27023\LIB\X86\OLDNAMES.LIB
C:\PROGRAM FILES (X86)\WINDOWS KITS\10\LIB\10.0.16299.0\UM\X86\GLU32.LIB
C:\USERS\SOFIE\DOCUMENTS\SCHOOL\422HW3\EXTERNAL RESOURCES\GLEW\LIB\RELEASE\WIN32\GLEW32.LIB
C:\PROGRAM FILES (X86)\MICROSOFT VISUAL STUDIO\2017\COMMUNITY\VC\TOOLS\MSVC\14.16.27023\LIB\X86\LIBCMT.LIB
C:\PROGRAM FILES (X86)\MICROSOFT VISUAL STUDIO\2017\COMMUNITY\VC\TOOLS\MSVC\14.16.27023\LIB\X86\MSVCRT.LIB
C:\PROGRAM FILES (X86)\MICROSOFT VISUAL STUDIO\2017\COMMUNITY\VC\TOOLS\MSVC\14.16.27023\LIB\X86\VCRUNTIMED.LIB
C:\PROGRAM FILES (X86)\WINDOWS KITS\10\LIB\10.0.16299.0\UCRT\X86\UCRTD.LIB
C:\PROGRAM FILES (X86)\MICROSOFT VISUAL STUDIO\2017\COMMUNITY\VC\TOOLS\MSVC\14.16.27023\BIN\HOSTX86\X86\1033\LINKUI.DLL
C:\PROGRAM FILES (X86)\WINDOWS KITS\10\BIN\10.0.16299.0\X86\RC.EXE
C:\PROGRAM FILES (X86)\MICROSOFT VISUAL STUDIO\2017\COMMUNITY\VC\TOOLS\MSVC\14.16.27023\BIN\HOSTX86\X86\CVTRES.EXE
