^C:\USERS\SOFIE\DOCUMENTS\SCHOOL\422HW3\422HW3\422HW2\LINEARR3.CPP
/c /I"C:\USERS\SOFIE\DOCUMENTS\SCHOOL\422HW3\422HW3\..\EXTERNAL RESOURCES\GLFW\INCLUDE" /I"C:\USERS\SOFIE\DOCUMENTS\SCHOOL\422HW3\422HW3\..\EXTERNAL RESOURCES\GLEW\INCLUDE" /ZI /JMC /nologo /W3 /WX- /diagnostics:classic /sdl /Od /Oy- /D _MBCS /Gm- /EHsc /RTC1 /MDd /GS /fp:precise /permissive- /Zc:wchar_t /Zc:forScope /Zc:inline /Fo"DEBUG\\" /Fd"DEBUG\VC141.PDB" /Gd /TP /analyze- /FC C:\USERS\SOFIE\DOCUMENTS\SCHOOL\422HW3\422HW3\422HW2\LINEARR3.CPP
^C:\USERS\SOFIE\DOCUMENTS\SCHOOL\422HW3\422HW3\422HW2\LINEARR4.CPP
/c /I"C:\USERS\SOFIE\DOCUMENTS\SCHOOL\422HW3\422HW3\..\EXTERNAL RESOURCES\GLFW\INCLUDE" /I"C:\USERS\SOFIE\DOCUMENTS\SCHOOL\422HW3\422HW3\..\EXTERNAL RESOURCES\GLEW\INCLUDE" /ZI /JMC /nologo /W3 /WX- /diagnostics:classic /sdl /Od /Oy- /D _MBCS /Gm- /EHsc /RTC1 /MDd /GS /fp:precise /permissive- /Zc:wchar_t /Zc:forScope /Zc:inline /Fo"DEBUG\\" /Fd"DEBUG\VC141.PDB" /Gd /TP /analyze- /FC C:\USERS\SOFIE\DOCUMENTS\SCHOOL\422HW3\422HW3\422HW2\LINEARR4.CPP
^C:\USERS\SOFIE\DOCUMENTS\SCHOOL\422HW3\422HW3\422HW2\MAIN.CPP
/c /I"C:\USERS\SOFIE\DOCUMENTS\SCHOOL\422HW3\422HW3\..\EXTERNAL RESOURCES\GLFW\INCLUDE" /I"C:\USERS\SOFIE\DOCUMENTS\SCHOOL\422HW3\422HW3\..\EXTERNAL RESOURCES\GLEW\INCLUDE" /ZI /JMC /nologo /W3 /WX- /diagnostics:classic /sdl /Od /Oy- /D _MBCS /Gm- /EHsc /RTC1 /MDd /GS /fp:precise /permissive- /Zc:wchar_t /Zc:forScope /Zc:inline /Fo"DEBUG\\" /Fd"DEBUG\VC141.PDB" /Gd /TP /analyze- /FC C:\USERS\SOFIE\DOCUMENTS\SCHOOL\422HW3\422HW3\422HW2\MAIN.CPP
^C:\USERS\SOFIE\DOCUMENTS\SCHOOL\422HW3\422HW3\422HW2\SHADERMGRSAM.CPP
/c /I"C:\USERS\SOFIE\DOCUMENTS\SCHOOL\422HW3\422HW3\..\EXTERNAL RESOURCES\GLFW\INCLUDE" /I"C:\USERS\SOFIE\DOCUMENTS\SCHOOL\422HW3\422HW3\..\EXTERNAL RESOURCES\GLEW\INCLUDE" /ZI /JMC /nologo /W3 /WX- /diagnostics:classic /sdl /Od /Oy- /D _MBCS /Gm- /EHsc /RTC1 /MDd /GS /fp:precise /permissive- /Zc:wchar_t /Zc:forScope /Zc:inline /Fo"DEBUG\\" /Fd"DEBUG\VC141.PDB" /Gd /TP /analyze- /FC C:\USERS\SOFIE\DOCUMENTS\SCHOOL\422HW3\422HW3\422HW2\SHADERMGRSAM.CPP
